# revision     filter
2843    PbPb.*
#2843    .*heavyion-mb.*
# first production with YODA output
#2814

#2806    PbPb.*
#2794    z1j.*herwig7.*nlo
#2743
#2773    jets.*powheg-box.*(ptdef2|pthard0|pthard2)
